…
## scry\_cards()

`scry_cards()` returns a tibble containing cards matching the seach in
the `query`arguement. So, if we instead of wanting the information about
**War of the Spark**, we wanted all cards in that set:

``` r
war_cards <- scry_cards("s:war")
war_cards
```

    ## # A tibble: 265 x 52
    ##    object multiverse_ids name  lang  released_at layout highres_image
    ##    <chr>  <list>         <chr> <chr> <chr>       <chr>  <lgl>        
    ##  1 card   <int [1]>      Ahn-~ en    2019-05-03  normal TRUE         
    ##  2 card   <int [1]>      Aid ~ en    2019-05-03  normal TRUE         
    ##  3 card   <int [1]>      Ajan~ en    2019-05-03  normal TRUE         
    ##  4 card   <int [1]>      Ajan~ en    2019-05-03  normal TRUE         
    ##  5 card   <int [1]>      Angr~ en    2019-05-03  normal TRUE         
    ##  6 card   <int [1]>      Angr~ en    2019-05-03  normal TRUE         
    ##  7 card   <int [1]>      Arbo~ en    2019-05-03  normal TRUE         
    ##  8 card   <int [1]>      Arli~ en    2019-05-03  normal TRUE         
    ##  9 card   <int [1]>      Arli~ en    2019-05-03  normal TRUE         
    ## 10 card   <int [1]>      Ashi~ en    2019-05-03  normal TRUE         
    ## # ... with 255 more rows, and 45 more variables: mana_cost <chr>,
    ## #   cmc <dbl>, type_line <chr>, oracle_text <chr>, power <chr>,
    ## #   toughness <chr>, colors <list>, color_identity <list>, games <list>,
    ## #   reserved <lgl>, foil <lgl>, nonfoil <lgl>, oversized <lgl>,
    ## #   promo <lgl>, reprint <lgl>, set <chr>, set_name <chr>,
    ## #   collector_number <chr>, digital <lgl>, rarity <chr>,
    ## #   flavor_text <chr>, artist <chr>, border_color <chr>, frame <chr>,
    ## #   full_art <lgl>, story_spotlight <lgl>, edhrec_rank <int>,
    ## #   loyalty <chr>, all_parts <list>, frame_effect <chr>,
…
