Wrapper for Scryfall API • scryr
…
## # A tibble: 1 x 11
##   object code  mtgo_code name  released_at set_type card_count digital
##   <chr>  <chr> <chr>     <chr> <chr>       <chr>         <int> <lgl>  
## 1 set    war   war       War ~ 2019-05-03  expansi~        311 FALSE  
## # ... with 3 more variables: foil_only <lgl>, block_code <chr>,
## #   block <chr>

scry_cards()

scry_cards() returns a tibble containing cards matching the seach in the queryarguement. So, if we instead of wanting the information about War of the Spark, we wanted all cards in that set:

war_cards <- scry_cards("s:war")
war_cards

## # A tibble: 265 x 56
##    object name  lang  released_at layout highres_image mana_cost   cmc
##    <chr>  <chr> <chr> <chr>       <chr>  <lgl>         <chr>     <dbl>
##  1 card   Ahn-~ en    2019-05-03  normal TRUE          {2}{R}        3
##  2 card   Aid ~ en    2019-05-03  normal TRUE          {1}{B}        2
##  3 card   Ajan~ en    2019-05-03  normal TRUE          {1}{W}        2
##  4 card   Ajan~ en    2019-05-03  normal TRUE          {2}{G}{W}     4
##  5 card   Angr~ en    2019-05-03  normal TRUE          {2}{B/R}~     4
##  6 card   Angr~ en    2019-05-03  normal TRUE          {B}{R}        2
##  7 card   Arbo~ en    2019-05-03  normal TRUE          {G}           1
##  8 card   Arli~ en    2019-05-03  normal TRUE          {2}{G}        3
##  9 card   Arli~ en    2019-05-03  normal TRUE          {4}{G}{G}     6
## 10 card   Ashi~ en    2019-05-03  normal TRUE          {1}{U/B}~     3
## # ... with 255 more rows, and 48 more variables: type_line <chr>,
## #   oracle_text <chr>, power <chr>, toughness <chr>, colors <list>,
## #   color_identity <list>, games <list>, reserved <lgl>, foil <lgl>,
## #   nonfoil <lgl>, oversized <lgl>, promo <lgl>, reprint <lgl>,
## #   variation <lgl>, set <chr>, set_name <chr>, set_type <chr>,
## #   collector_number <chr>, digital <lgl>, rarity <chr>,
## #   flavor_text <chr>, artist <chr>, border_color <chr>, frame <chr>,
## #   full_art <lgl>, textless <lgl>, booster <lgl>, story_spotlight <lgl>,
## #   edhrec_rank <int>, loyalty <chr>, all_parts <list>,
…
